<?xml version="1.0" encoding="UTF-8"?>
<svg width="75px" height="75px" viewBox="0 0 75 75" version="1.1" xmlns="http://www.w3.org/2000/svg" xmlns:xlink="http://www.w3.org/1999/xlink">
    <!-- Generator: Sketch 47 (45396) - http://www.bohemiancoding.com/sketch -->
    <title>001-social-network</title>
    <desc>Created with Sketch.</desc>
    <defs></defs>
    <g id="Welcome" stroke="none" stroke-width="1" fill="none" fill-rule="evenodd">
        <g id="Desktop-HD" transform="translate(-989.000000, -2603.000000)" fill-rule="nonzero">
            <g id="001-social-network" transform="translate(989.000000, 2603.000000)">
                <rect id="Rectangle-path" fill="#FFFFFF" x="16" y="67" width="13" height="3"></rect>
                <path d="M50.8681452,38.7096774 C51.4778226,44.8137097 56.6419355,49.5967742 62.9032258,49.5967742 C69.5733871,49.5967742 75,44.1701613 75,37.5 C75,30.8298387 69.5733871,25.4032258 62.9032258,25.4032258 C56.6419355,25.4032258 51.4766129,30.1862903 50.8681452,36.2903226 L48.3870968,36.2903226 L48.3870968,13.3064516 L50.8681452,13.3064516 C51.4778226,19.4104839 56.6419355,24.1935484 62.9032258,24.1935484 C69.5733871,24.1935484 75,18.7669355 75,12.0967742 C75,5.4266129 69.5733871,0 62.9032258,0 C56.6419355,0 51.4766129,4.78306452 50.8681452,10.8870968 L45.9677419,10.8870968 L45.9677419,36.2903226 L43.5483871,36.2903226 L43.5483871,6.0483871 C43.5483871,2.71330645 40.8350806,0 37.5,0 L6.0483871,0 C2.71330645,0 0,2.71330645 0,6.0483871 L0,68.9516129 C0,72.2866935 2.71330645,75 6.0483871,75 L37.5,75 C40.8350806,75 43.5483871,72.2866935 43.5483871,68.9516129 L43.5483871,38.7096774 L45.9677419,38.7096774 L45.9677419,64.1129032 L50.8681452,64.1129032 C51.4778226,70.2169355 56.6419355,75 62.9032258,75 C69.5733871,75 75,69.5733871 75,62.9032258 C75,56.2330645 69.5733871,50.8064516 62.9032258,50.8064516 C56.6419355,50.8064516 51.4766129,55.5895161 50.8681452,61.6935484 L48.3870968,61.6935484 L48.3870968,38.7096774 L50.8681452,38.7096774 Z M62.9032258,27.8225806 C68.2391129,27.8225806 72.5806452,32.1641129 72.5806452,37.5 C72.5806452,42.8358871 68.2391129,47.1774194 62.9032258,47.1774194 C57.5673387,47.1774194 53.2258065,42.8358871 53.2258065,37.5 C53.2258065,32.1641129 57.5673387,27.8225806 62.9032258,27.8225806 Z M62.9032258,2.41935484 C68.2391129,2.41935484 72.5806452,6.7608871 72.5806452,12.0967742 C72.5806452,17.4326613 68.2391129,21.7741935 62.9032258,21.7741935 C57.5673387,21.7741935 53.2258065,17.4326613 53.2258065,12.0967742 C53.2258065,6.7608871 57.5673387,2.41935484 62.9032258,2.41935484 Z M41.1290323,68.9516129 C41.1290323,70.9524194 39.5008065,72.5806452 37.5,72.5806452 L6.0483871,72.5806452 C4.04758065,72.5806452 2.41935484,70.9524194 2.41935484,68.9516129 L2.41935484,65.3225806 L41.1290323,65.3225806 L41.1290323,68.9516129 Z M41.1290323,36.2903226 L38.6479839,36.2903226 C38.0237903,27.5165323 30.7040323,20.5645161 21.7741935,20.5645161 C12.4354839,20.5645161 4.83870968,28.1612903 4.83870968,37.5 C4.83870968,46.8387097 12.4354839,54.4354839 21.7741935,54.4354839 C30.7040323,54.4354839 38.0237903,47.4834677 38.6479839,38.7096774 L41.1290323,38.7096774 L41.1290323,62.9032258 L2.41935484,62.9032258 L2.41935484,9.67741935 L41.1290323,9.67741935 L41.1290323,36.2903226 Z M29.4205645,28.9548387 C28.2846774,26.6709677 26.846371,24.8491935 25.5677419,23.5040323 C28.1685484,24.2104839 30.4790323,25.616129 32.283871,27.5153226 C31.6935484,27.9120968 30.746371,28.4552419 29.4205645,28.9548387 Z M33.8165323,29.403629 C35.1653226,31.4032258 36.0181452,33.7560484 36.228629,36.2903226 L31.391129,36.2903226 C31.2725806,34.4346774 30.8975806,32.7350806 30.3532258,31.196371 C31.9560484,30.5842742 33.1052419,29.9032258 33.8165323,29.403629 Z M27.0290323,29.6709677 C25.8604839,29.9395161 24.5153226,30.1391129 22.983871,30.2104839 L22.983871,24.3629032 C24.2044355,25.5290323 25.7866935,27.3278226 27.0290323,29.6709677 Z M28.0258065,31.9221774 C28.5096774,33.2504032 28.8495968,34.7068548 28.9693548,36.2903226 L22.983871,36.2903226 L22.983871,32.628629 C24.9157258,32.5475806 26.5899194,32.2826613 28.0258065,31.9221774 Z M28.9693548,38.7096774 C28.8495968,40.2931452 28.5096774,41.7495968 28.0258065,43.0778226 C26.5899194,42.7173387 24.9157258,42.4524194 22.983871,42.371371 L22.983871,38.7096774 L28.9693548,38.7096774 Z M27.0290323,45.3302419 C25.7866935,47.6733871 24.2044355,49.4721774 22.983871,50.6383065 L22.983871,44.7907258 C24.5153226,44.8608871 25.8604839,45.0616935 27.0290323,45.3302419 Z M29.4217742,46.0451613 C30.746371,46.5447581 31.6947581,47.0891129 32.2850806,47.4846774 C30.4802419,49.383871 28.1697581,50.7907258 25.5689516,51.4959677 C26.846371,50.1508065 28.2846774,48.3290323 29.4217742,46.0451613 Z M30.3532258,43.803629 C30.8975806,42.2649194 31.2725806,40.5653226 31.391129,38.7096774 L36.2298387,38.7096774 C36.0181452,41.2439516 35.1653226,43.5979839 33.8165323,45.596371 C33.1052419,45.0967742 31.9560484,44.4157258 30.3532258,43.803629 Z M13.1951613,31.196371 C12.6508065,32.7350806 12.2758065,34.4346774 12.1572581,36.2903226 L7.31854839,36.2903226 C7.53024194,33.7560484 8.38306452,31.4020161 9.73185484,29.403629 C10.4431452,29.9032258 11.5923387,30.5842742 13.1951613,31.196371 Z M11.2633065,27.5153226 C13.0681452,25.616129 15.378629,24.2104839 17.9794355,23.5040323 C16.7020161,24.8491935 15.2637097,26.6709677 14.1266129,28.9548387 C12.8020161,28.4552419 11.853629,27.9108871 11.2633065,27.5153226 Z M12.1572581,38.7096774 C12.2758065,40.5653226 12.6508065,42.2649194 13.1951613,43.803629 C11.5923387,44.4157258 10.4431452,45.0967742 9.73185484,45.596371 C8.38306452,43.5979839 7.53024194,41.2439516 7.31975806,38.7096774 L12.1572581,38.7096774 Z M14.1266129,46.0451613 C15.2637097,48.3290323 16.7020161,50.1520161 17.9794355,51.4959677 C15.378629,50.7895161 13.0681452,49.383871 11.2633065,47.4846774 C11.8548387,47.0879032 12.8020161,46.5447581 14.1266129,46.0451613 Z M16.5193548,45.3290323 C17.6879032,45.0604839 19.0330645,44.8608871 20.5645161,44.7895161 L20.5645161,50.6370968 C19.3439516,49.4709677 17.7616935,47.6721774 16.5193548,45.3290323 Z M15.5225806,43.0778226 C15.0387097,41.7495968 14.6987903,40.2931452 14.5790323,38.7096774 L20.5645161,38.7096774 L20.5645161,42.371371 C18.6326613,42.4524194 16.9584677,42.7173387 15.5225806,43.0778226 Z M14.5790323,36.2903226 C14.6987903,34.7068548 15.0387097,33.2504032 15.5225806,31.9221774 C16.9584677,32.2826613 18.6326613,32.5475806 20.5645161,32.628629 L20.5645161,36.2903226 L14.5790323,36.2903226 Z M16.5193548,29.6697581 C17.7616935,27.3266129 19.3439516,25.5278226 20.5645161,24.3616935 L20.5645161,30.2092742 C19.0330645,30.1391129 17.6879032,29.9383065 16.5193548,29.6697581 Z M41.1290323,7.25806452 L2.41935484,7.25806452 L2.41935484,6.0483871 C2.41935484,4.04758065 4.04758065,2.41935484 6.0483871,2.41935484 L37.5,2.41935484 C39.5008065,2.41935484 41.1290323,4.04758065 41.1290323,6.0483871 L41.1290323,7.25806452 Z M62.9032258,53.2258065 C68.2391129,53.2258065 72.5806452,57.5673387 72.5806452,62.9032258 C72.5806452,68.2391129 68.2391129,72.5806452 62.9032258,72.5806452 C57.5673387,72.5806452 53.2258065,68.2391129 53.2258065,62.9032258 C53.2258065,57.5673387 57.5673387,53.2258065 62.9032258,53.2258065 Z" id="Shape" fill="#FFFFFF"></path>
                <polygon id="Shape" fill="#FFD740" points="61.75 18 64.25 18 64.25 12.1666667 68 12.1666667 68 9.83333333 64.25 9.83333333 64.25 6.33333333 68 6.33333333 68 4 61.75 4 61.75 9.83333333 58 9.83333333 58 12.1666667 61.75 12.1666667"></polygon>
                <polygon id="Shape" fill="#FFD740" points="61.2857143 70 67 70 67 67.6666667 63.5714286 67.6666667 63.5714286 60.6666667 65.8571429 60.6666667 65.8571429 58.3333333 63.5714286 58.3333333 63.5714286 56 61.2857143 56 61.2857143 58.3333333 59 58.3333333 59 60.6666667 61.2857143 60.6666667"></polygon>
                <rect id="Rectangle-path" fill="#FFD740" x="56" y="35" width="3" height="8"></rect>
                <rect id="Rectangle-path" fill="#FFD740" x="56" y="30" width="3" height="3"></rect>
                <path d="M64.2857143,39 C64.2857143,38.0548571 65.0548571,37.2857143 66,37.2857143 C66.9451429,37.2857143 67.7142857,38.0548571 67.7142857,39 L67.7142857,43 L70,43 L70,39 C70,36.7942857 68.2057143,35 66,35 C65.3874286,35 64.8057143,35.1382857 64.2857143,35.3862857 L64.2857143,35 L62,35 L62,43 L64.2857143,43 L64.2857143,39 Z" id="Shape" fill="#FFD740"></path>
            </g>
        </g>
    </g>
</svg>