<?xml version="1.0" encoding="UTF-8"?>
<svg width="147px" height="32px" viewBox="0 0 147 32" version="1.1" xmlns="http://www.w3.org/2000/svg" xmlns:xlink="http://www.w3.org/1999/xlink">
    <!-- Generator: Sketch 47 (45396) - http://www.bohemiancoding.com/sketch -->
    <title>asset / logos / codelab</title>
    <desc>Created with Sketch.</desc>
    <defs></defs>
    <g id="Symbols" stroke="none" stroke-width="1" fill="none" fill-rule="evenodd">
        <g id="asset-/-logos-/-codelab">
            <g id="Logo">
                <g id="Group-3">
                    <g id="Group-2" transform="translate(12.349998, 0.000000)">
                        <g id="Codelab-Logo">
                            <g id="Beaker-Bubbles" transform="translate(0.042748, 0.025641)">
                                <g id="Group" transform="translate(0.000000, 1.000000)">
                                    <g id="Beaker" transform="translate(0.391129, 0.226824)">
                                        <path d="M7.62243062,1.71646207 C7.62243062,4.84828815 7.56719446,6.9270217 7.45672214,7.95266272 C7.34624983,8.97830375 6.60449945,10.8885749 5.231471,13.6834761 C4.13743345,16.3586603 3.73361125,18.209073 4.02000439,19.234714 C4.44959411,20.7731755 13.9598454,24.3309635 16.6310627,20.2475345 C19.30228,16.1641055 12.6900066,9.49112426 12.6117988,7.95266272 C12.5596602,6.9270217 12.5335909,4.84828815 12.5335909,1.71646207 L7.62243062,1.71646207 Z" id="Path-3" fill="#FFFFFF" transform="translate(10.598592, 11.929411) scale(-1, 1) translate(-10.598592, -11.929411) "></path>
                                        <path d="M4.6994296,16.3447946 C7.15352193,14.4691726 9.62048605,17.325895 12.7222715,17.525638 C15.8240569,17.725381 16.1954222,15.5304074 16.5185249,15.7475345 C16.8416275,15.9646617 21.2368838,22.1403879 19.5185249,24.2475345 C18.7041278,25.2461933 14.2871501,27.7741266 10.5185249,27.7475345 C6.33543882,27.7180179 2.28190915,26.4272548 1.82992826,25.6373289 C1.25714197,24.6362716 2.21364241,21.5387601 4.6994296,16.3447946 Z" id="Path-2" fill="#4EB2D1" transform="translate(10.792323, 21.728732) scale(-1, 1) translate(-10.792323, -21.728732) "></path>
                                        <path d="M13.1576601,1.84753454 L8.63712503,1.84753454 L8.63712503,7.27964081 L8.47671159,7.54314414 C6.21397631,11.2600289 4.074173,15.6121011 2.08746046,20.5206253 C1.97758795,20.865515 1.87678636,21.2157739 1.78506094,21.5714258 C1.23186783,23.7163508 2.42636389,25.9249424 4.52422686,26.6360651 C6.51248155,27.3100403 8.62340824,27.6475345 10.8617173,27.6475345 C13.3806037,27.6475345 15.5826477,27.2203341 17.4761193,26.3731 C19.133285,25.631601 20.1328436,23.9156868 19.9604056,22.1084001 C19.9086948,21.566448 19.8006047,21.0376275 19.6641251,20.5988597 C17.6487265,15.6114659 15.5309815,11.2563867 13.3127402,7.53428986 L13.1576601,7.27407335 L13.1576601,1.84753454 Z" id="Rectangle-3" stroke="#FFFFFF" stroke-width="2.20000005" transform="translate(10.814820, 14.747535) scale(-1, 1) translate(-10.814820, -14.747535) "></path>
                                    </g>
                                    <path d="M9.14974033,15.0555873 C8.49114694,15.0555873 7.95725152,14.5203065 7.95725152,13.8600042 C7.95725152,13.1997018 8.49114694,12.664421 9.14974033,12.664421 C9.80833372,12.664421 10.3422291,13.1997018 10.3422291,13.8600042 C10.3422291,14.5203065 9.80833372,15.0555873 9.14974033,15.0555873 Z M11.1469411,9.91718158 C10.6118339,9.91718158 10.1780439,9.48226593 10.1780439,8.94577028 C10.1780439,8.40927463 10.6118339,7.97435897 11.1469411,7.97435897 C11.6820482,7.97435897 12.1158382,8.40927463 12.1158382,8.94577028 C12.1158382,9.48226593 11.6820482,9.91718158 11.1469411,9.91718158 Z M12.9517315,12.5962015 C12.5401106,12.5962015 12.206426,12.261651 12.206426,11.848962 C12.206426,11.4362731 12.5401106,11.1017226 12.9517315,11.1017226 C13.3633524,11.1017226 13.697037,11.4362731 13.697037,11.848962 C13.697037,12.261651 13.3633524,12.5962015 12.9517315,12.5962015 Z" id="Bubbles" fill="#4EB2D1"></path>
                                </g>
                                <path d="M7.60725304,0.974358974 L14.607253,0.974358974 L14.607253,0.974358974 C15.1595378,0.974358974 15.607253,1.42207422 15.607253,1.97435897 L15.607253,1.97435897 L15.607253,1.97435897 C15.607253,2.52664372 15.1595378,2.97435897 14.607253,2.97435897 L7.60725304,2.97435897 L7.60725304,2.97435897 C7.05496829,2.97435897 6.60725304,2.52664372 6.60725304,1.97435897 L6.60725304,1.97435897 L6.60725304,1.97435897 C6.60725304,1.42207422 7.05496829,0.974358974 7.60725304,0.974358974 Z" id="Rectangle-2" fill="#FFFFFF"></path>
                            </g>
                        </g>
                    </g>
                    <path d="M4.87060783,12.3002609 C4.87060783,12.9206705 4.79733831,13.4081279 4.65079706,13.7626476 C4.50425581,14.1171674 4.30538138,14.4052104 4.05416781,14.6267852 C3.80295424,14.8483601 3.40520538,15.1253245 2.86090931,15.4576868 C3.40520538,15.8122065 3.80295424,16.0891709 4.05416781,16.2885883 C4.30538138,16.4880057 4.50425581,16.7705094 4.65079706,17.1361079 C4.79733831,17.5017064 4.87060783,17.994703 4.87060783,18.6151126 L4.87060783,25.5282134 C4.87060783,26.4145128 5.1165841,27.0570702 5.60854401,27.455905 C6.10050392,27.8547397 6.91170224,28.0541541 8.04216331,28.0541541 L8.04216331,29.8821375 L7.28852637,29.8821375 C5.76031048,29.8821375 4.65080051,29.5830159 3.95996319,28.9847638 C3.26912587,28.3865117 2.92371239,27.411597 2.92371239,26.0599904 L2.92371239,18.4821684 C2.92371239,17.7509713 2.79810749,17.2191997 2.54689392,16.8868374 C2.29568035,16.5544751 1.90839857,16.3882965 1.38503696,16.3882965 L0.599998474,16.3882965 L0.599998474,14.527077 L1.38503696,14.527077 C2.41082571,14.527077 2.92371239,13.8291267 2.92371239,12.4332052 L2.92371239,4.82214707 C2.92371239,3.47054048 3.26912587,2.49562576 3.95996319,1.89737366 C4.65080051,1.29912156 5.76031048,1 7.28852637,1 L8.04216331,1 L8.04216331,2.82798338 C6.91170224,2.82798338 6.10050392,3.03293705 5.60854401,3.44285052 C5.1165841,3.852764 4.87060783,4.50086072 4.87060783,5.38716012 L4.87060783,12.3002609 Z" id="Bracket-Left" fill="#FFFFFF"></path>
                    <path d="M146.442165,14.527077 L146.442165,16.3882965 L145.657126,16.3882965 C145.133765,16.3882965 144.746483,16.5544751 144.495269,16.8868374 C144.244056,17.2191997 144.118451,17.7509713 144.118451,18.4821684 L144.118451,26.0599904 C144.118451,27.411597 143.773037,28.3865117 143.0822,28.9847638 C142.391363,29.5830159 141.281853,29.8821375 139.753637,29.8821375 L139,29.8821375 L139,28.0541541 C140.130461,28.0541541 140.941659,27.8547397 141.433619,27.455905 C141.925579,27.0570702 142.171555,26.4145128 142.171555,25.5282134 L142.171555,18.6151126 C142.171555,17.994703 142.244825,17.5017064 142.391366,17.1361079 C142.537908,16.7705094 142.736782,16.4880057 142.987996,16.2885883 C143.239209,16.0891709 143.636958,15.8122065 144.181254,15.4576868 C143.636958,15.1253245 143.239209,14.8483601 142.987996,14.6267852 C142.736782,14.4052104 142.537908,14.1171674 142.391366,13.7626476 C142.244825,13.4081279 142.171555,12.9206705 142.171555,12.3002609 L142.171555,5.38716012 C142.171555,4.50086072 141.925579,3.852764 141.433619,3.44285052 C140.941659,3.03293705 140.130461,2.82798338 139,2.82798338 L139,1 L139.753637,1 C141.281853,1 142.391363,1.29912156 143.0822,1.89737366 C143.773037,2.49562576 144.118451,3.47054048 144.118451,4.82214707 L144.118451,12.4332052 C144.118451,13.8291267 144.631338,14.527077 145.657126,14.527077 L146.442165,14.527077 Z" id="Bracket-Right" fill="#FFFFFF"></path>
                </g>
                <g id="Codelab-Logo" transform="translate(41.000000, 1.000000)" fill="#FFFFFF">
                    <path d="M8.26728467,3.47372737 C7.91106237,3.04076788 7.49300218,2.70095012 7.01309157,2.4542639 C6.53318097,2.20757768 6.05080383,2.08423642 5.56594569,2.08423642 C4.98213692,2.08423642 4.44781147,2.2302322 3.96295333,2.52222813 C3.4780952,2.81422407 3.09714094,3.2119367 2.82007915,3.71537797 C2.54301736,4.21881923 2.40448854,4.77763066 2.40448854,5.391829 C2.40448854,6.00602735 2.54301736,6.56735594 2.82007915,7.07583162 C3.09714094,7.58430729 3.4780952,7.98705427 3.96295333,8.28408461 C4.44781147,8.58111496 4.98213692,8.72962791 5.56594569,8.72962791 C6.0310137,8.72962791 6.50349592,8.61635532 6.98340653,8.38980675 C7.46331714,8.16325818 7.89127224,7.85868078 8.26728467,7.47606542 L9.6476392,9.00148483 C9.09351562,9.5854767 8.44292491,10.0486357 7.69584758,10.3909758 C6.94877024,10.7333158 6.19923039,10.9044833 5.44720552,10.9044833 C4.42801392,10.9044833 3.50283931,10.6653523 2.67165393,10.1870831 C1.84046855,9.70881388 1.18740412,9.05183288 0.712441049,8.21612038 C0.237477975,7.38040788 0,6.44905551 0,5.42203533 C0,4.40508397 0.242425433,3.48380027 0.727283571,2.65815659 C1.21214171,1.83251292 1.87757478,1.18308343 2.72360276,0.709848636 C3.56963074,0.236613846 4.50717399,-3.95769506e-15 5.53626065,0 C6.28828552,-3.95769506e-15 7.03040419,0.15858162 7.76263893,0.475749618 C8.49487367,0.792917615 9.11825335,1.22335344 9.63279668,1.76707001 L8.26728467,3.47372737 Z M18.6017853,0 C19.640767,-3.95769506e-15 20.5857315,0.236613846 21.436707,0.709848636 C22.2876825,1.18308343 22.958063,1.83503009 23.4478687,2.66570818 C23.9376744,3.49638626 24.1825735,4.42018713 24.1825735,5.43713849 C24.1825735,6.45408985 23.9376744,7.38040788 23.4478687,8.21612038 C22.958063,9.05183288 22.2876825,9.70881388 21.436707,10.1870831 C20.5857315,10.6653523 19.640767,10.9044833 18.6017853,10.9044833 C17.5628036,10.9044833 16.6178391,10.6653523 15.7668636,10.1870831 C14.9158881,9.70881388 14.2455076,9.05435005 13.7557019,8.22367196 C13.2658962,7.39299387 13.0209971,6.46415867 13.0209971,5.43713849 C13.0209971,4.42018713 13.2658962,3.49638626 13.7557019,2.66570818 C14.2455076,1.83503009 14.9134144,1.18308343 15.7594424,0.709848636 C16.6054703,0.236613846 17.5529085,-3.95769506e-15 18.6017853,0 Z M18.6314703,2.08423642 C18.0575566,2.08423642 17.5232312,2.23274937 17.028478,2.52977971 C16.5337248,2.82681006 16.1428756,3.2320742 15.8559188,3.74558429 C15.5689619,4.25909438 15.4254856,4.82294014 15.4254856,5.43713849 C15.4254856,6.06140566 15.5714356,6.63028576 15.86334,7.14379585 C16.1552444,7.65730594 16.5460936,8.06508725 17.0358992,8.36715201 C17.5257049,8.66921677 18.0575566,8.82024688 18.6314703,8.82024688 C19.2053841,8.82024688 19.7322883,8.67173393 20.2121989,8.37470359 C20.6921095,8.07767324 21.0730638,7.66989193 21.3550731,7.15134743 C21.6370824,6.63280292 21.778085,6.06140566 21.778085,5.43713849 C21.778085,4.82294014 21.6370824,4.25909438 21.3550731,3.74558429 C21.0730638,3.2320742 20.6921095,2.82681006 20.2121989,2.52977971 C19.7322883,2.23274937 19.2053841,2.08423642 18.6314703,2.08423642 Z M33.0476645,0.166134787 C34.1064363,0.166134787 35.0514008,0.39016279 35.8825862,0.838225517 C36.7137715,1.28628824 37.3594148,1.91054605 37.8195353,2.71101766 C38.2796557,3.51148928 38.5097125,4.42522147 38.5097125,5.45224165 C38.5097125,6.47926183 38.2747083,7.39299403 37.8046927,8.19346564 C37.3346772,8.99393725 36.679139,9.61819506 35.8380586,10.0662578 C34.9969782,10.5143205 34.0371713,10.7383485 32.9586094,10.7383485 L28.6394355,10.7383485 L28.6394355,0.166134787 L33.0476645,0.166134787 Z M33.1070346,8.72962791 C33.6809483,8.72962791 34.1979576,8.59118363 34.6580781,8.31429094 C35.1181986,8.03739824 35.4768893,7.65227145 35.7341609,7.15889901 C35.9914326,6.66552657 36.1200665,6.10168081 36.1200665,5.46734481 C36.1200665,4.83300882 35.9840114,4.26412872 35.7118972,3.76068745 C35.4397829,3.25724619 35.0687236,2.86708506 34.598708,2.59019236 C34.1286925,2.31329967 33.5968408,2.1748554 33.0031369,2.1748554 L30.9845539,2.1748554 L30.9845539,8.72962791 L33.1070346,8.72962791 Z M42.9665745,0.166134787 L50.8776387,0.166134787 L50.8776387,2.14464907 L45.311693,2.14464907 L45.311693,4.44032977 L50.3136228,4.44032977 L50.3136228,6.41884405 L45.311693,6.41884405 L45.311693,8.75983423 L51.0409064,8.75983423 L51.0409064,10.7383485 L42.9665745,10.7383485 L42.9665745,0.166134787 Z M55.7946188,0.166134787 L58.1397373,0.166134787 L58.1397373,8.65411209 L62.5924938,8.65411209 L62.5924938,10.7383485 L55.7946188,10.7383485 L55.7946188,0.166134787 Z M74.6338845,10.7383485 L73.8175458,8.68431842 L69.0085687,8.68431842 L68.19223,10.7383485 L65.7728989,10.7383485 L70.2850256,0.166134787 L72.7043566,0.166134787 L77.1422707,10.7383485 L74.6338845,10.7383485 Z M69.7803798,6.76621679 L73.0605771,6.76621679 L71.4278997,2.65815659 L69.7803798,6.76621679 Z M85.9183065,0.166134787 C87.0661339,0.166134787 87.9715187,0.402748633 88.634488,0.875983423 C89.2974573,1.34921821 89.628937,1.99361337 89.628937,2.80918822 C89.628937,3.37304244 89.4681446,3.86389031 89.146555,4.28174656 C88.8249654,4.69960281 88.3871154,4.98404286 87.8329918,5.13507524 C88.5058562,5.26596997 89.0352342,5.57054737 89.4211416,6.04881657 C89.8070491,6.52708577 90,7.11358605 90,7.808335 C90,8.71452927 89.6487305,9.42940515 88.9461809,9.95298407 C88.2436314,10.476563 87.288772,10.7383485 86.0815742,10.7383485 L81.1390145,10.7383485 L81.1390145,0.166134787 L85.9183065,0.166134787 Z M85.7995663,4.4252266 C86.2448442,4.4252266 86.59364,4.32202269 86.8459641,4.11561177 C87.0982882,3.90920085 87.2244484,3.61972647 87.2244484,3.24717993 C87.2244484,2.88470222 87.0982882,2.60277934 86.8459641,2.40140283 C86.59364,2.20002633 86.2448442,2.10437392 85.7995663,2.11444275 L83.4841329,2.11444275 L83.4841329,4.4252266 L85.7995663,4.4252266 Z M85.7995663,8.79004056 C86.3536899,8.79004056 86.7890662,8.67676797 87.1057082,8.4502194 C87.4223503,8.22367083 87.5806689,7.90902476 87.5806689,7.50627175 C87.5806689,7.12365638 87.4223503,6.82159616 87.1057082,6.600082 C86.7890662,6.37856784 86.3536899,6.27284676 85.7995663,6.28291559 L83.4841329,6.28291559 L83.4841329,8.79004056 L85.7995663,8.79004056 Z M7.15409553,20.5271259 C6.66923739,20.2149923 6.16707043,19.9808956 5.64757956,19.8248288 C5.1280887,19.668762 4.65065902,19.5907298 4.21527621,19.5907298 C3.6116773,19.5907298 3.12930016,19.7090367 2.76813033,19.9456541 C2.40696049,20.1822715 2.22637828,20.5069862 2.22637828,20.9198081 C2.22637828,21.2923546 2.33522235,21.596932 2.55291376,21.8335494 C2.77060517,22.0701668 3.03776789,22.2564373 3.35440994,22.3923664 C3.67105199,22.5282956 4.11137573,22.6868772 4.67539438,22.868116 C5.37794393,23.0896302 5.94690158,23.3010724 6.3822844,23.5024489 C6.81766721,23.7038254 7.18872655,24.0033684 7.49547353,24.401087 C7.80222052,24.7988056 7.95559171,25.3248939 7.95559171,25.9793675 C7.95559171,26.583497 7.79479933,27.1121024 7.47320975,27.5651996 C7.15162017,28.0182967 6.70140151,28.3681831 6.12254026,28.6148694 C5.54367902,28.8615556 4.87824594,28.9848968 4.12622107,28.9848968 C3.36430114,28.9848968 2.62218247,28.8338667 1.8998428,28.531802 C1.17750312,28.2297372 0.554123438,27.8269902 0.0296850437,27.323549 L0.667913483,26.0699865 C1.16266669,26.5633589 1.71925569,26.9434514 2.33769719,27.2102752 C2.95613869,27.4770991 3.55725482,27.6105091 4.1410636,27.6105091 C4.83371808,27.6105091 5.38041217,27.4720648 5.78116226,27.1951721 C6.18191235,26.9182794 6.3822844,26.5432213 6.3822844,26.0699865 C6.3822844,25.6974399 6.27344032,25.3903454 6.05574892,25.1486936 C5.83805751,24.9070418 5.5634736,24.715737 5.23198895,24.5747734 C4.90050431,24.4338098 4.45275938,24.2777454 3.88874072,24.1065754 C3.19608624,23.89513 2.63207605,23.6887222 2.19669323,23.4873457 C1.76131042,23.2859692 1.39272481,22.9889433 1.09092536,22.5962591 C0.789125903,22.2035749 0.63822844,21.6850382 0.63822844,21.0406334 C0.63822844,20.4767792 0.791599632,19.9783798 1.09834662,19.5454203 C1.4050936,19.1124608 1.83552243,18.7801946 2.38964602,18.5486116 C2.9437696,18.3170286 3.58693912,18.2012388 4.31917386,18.2012388 C4.94256289,18.2012388 5.55357393,18.2943741 6.15222531,18.4806473 C6.75087668,18.6669206 7.2827284,18.9161203 7.74779641,19.2282539 L7.15409553,20.5271259 Z M12.830255,18.3220641 L20.9491145,18.3220641 L20.9491145,19.6511424 L17.5947046,19.6511424 L17.5947046,28.8942779 L16.1698225,28.8942779 L16.1698225,19.6511424 L12.830255,19.6511424 L12.830255,18.3220641 Z M27.7236206,24.5747734 C27.7236206,25.5514495 27.9883096,26.3141515 28.5176955,26.8629025 C29.0470815,27.4116535 29.7768315,27.6860249 30.7069675,27.6860249 C31.6272085,27.6860249 32.3495373,27.4116535 32.8739757,26.8629025 C33.3984141,26.3141515 33.6606294,25.5514495 33.6606294,24.5747734 L33.6606294,18.3220641 L35.0855115,18.3220641 L35.0855115,24.5747734 C35.0855115,25.9542025 34.697136,27.036585 33.9203735,27.8219533 C33.143611,28.6073217 32.0724863,29 30.7069675,29 C29.3315536,29 28.2530078,28.6073217 27.4712977,27.8219533 C26.6895877,27.036585 26.2987385,25.9542025 26.2987385,24.5747734 L26.2987385,18.3220641 L27.7236206,18.3220641 L27.7236206,24.5747734 Z M46.0010812,18.3220641 C47.0103777,18.3220641 47.9231837,18.5511265 48.7395265,19.009258 C49.5558692,19.4673896 50.196565,20.0991989 50.661633,20.9047049 C51.1267011,21.7102109 51.3592316,22.6113573 51.3592316,23.608171 C51.3592316,24.6049847 51.1242273,25.5061311 50.6542118,26.3116371 C50.1841962,27.1171431 49.538553,27.7489524 48.7172627,28.207084 C47.8959724,28.6652155 46.9757452,28.8942779 45.9565536,28.8942779 L41.7709625,28.8942779 L41.7709625,18.3220641 L46.0010812,18.3220641 Z M46.0307662,27.5803027 C46.7531059,27.5803027 47.4086441,27.4091353 47.9974004,27.0667952 C48.5861567,26.7244551 49.0512177,26.2512275 49.3925974,25.6470979 C49.7339771,25.0429684 49.9046644,24.3683672 49.9046644,23.6232742 C49.9046644,22.8681123 49.7315034,22.1884767 49.3851762,21.5843472 C49.0388489,20.9802177 48.5663667,20.5044728 47.9677153,20.1570984 C47.369064,19.8097239 46.7036309,19.6360393 45.9713961,19.6360393 L43.1958446,19.6360393 L43.1958446,27.5803027 L46.0307662,27.5803027 Z M57.3322415,18.3220641 L58.7571236,18.3220641 L58.7571236,28.8942779 L57.3322415,28.8942779 L57.3322415,18.3220641 Z M70.2070241,18.2314452 C71.2064256,18.2314452 72.124179,18.468059 72.9603119,18.9412938 C73.7964448,19.4145286 74.4569305,20.0614409 74.9417886,20.8820502 C75.4266467,21.7026594 75.6690722,22.606323 75.6690722,23.5930678 C75.6690722,24.5798127 75.4266467,25.4885106 74.9417886,26.3191887 C74.4569305,27.1498668 73.7964448,27.8043306 72.9603119,28.2825998 C72.124179,28.760869 71.2064256,29 70.2070241,29 C69.2076227,29 68.2898692,28.760869 67.4537363,28.2825998 C66.6176034,27.8043306 65.9571178,27.1498668 65.4722597,26.3191887 C64.9874015,25.4885106 64.7449761,24.5798127 64.7449761,23.5930678 C64.7449761,22.606323 64.9874015,21.7026594 65.4722597,20.8820502 C65.9571178,20.0614409 66.6151297,19.4145286 67.4463151,18.9412938 C68.2775004,18.468059 69.1977276,18.2314452 70.2070241,18.2314452 Z M70.2218666,19.5303171 C69.499527,19.5303171 68.8291464,19.7115533 68.2107049,20.074031 C67.5922634,20.4365087 67.0999914,20.9273566 66.733874,21.5465893 C66.3677566,22.1658221 66.1847007,22.8479748 66.1847007,23.5930678 C66.1847007,24.3381609 66.3677566,25.0228308 66.733874,25.6470979 C67.0999914,26.2713651 67.5922634,26.7672473 68.2107049,27.1347594 C68.8291464,27.5022716 69.499527,27.6860249 70.2218666,27.6860249 C70.9442063,27.6860249 71.6096394,27.5022716 72.2181858,27.1347594 C72.8267323,26.7672473 73.3115831,26.2713651 73.672753,25.6470979 C74.0339228,25.0228308 74.214505,24.3381609 74.214505,23.5930678 C74.214505,22.8479748 74.0339228,22.1658221 73.672753,21.5465893 C73.3115831,20.9273566 72.8267323,20.4365087 72.2181858,20.074031 C71.6096394,19.7115533 70.9442063,19.5303171 70.2218666,19.5303171 Z M87.7275161,20.5271259 C87.2426579,20.2149923 86.740491,19.9808956 86.2210001,19.8248288 C85.7015092,19.668762 85.2240796,19.5907298 84.7886967,19.5907298 C84.1850978,19.5907298 83.7027207,19.7090367 83.3415509,19.9456541 C82.980381,20.1822715 82.7997988,20.5069862 82.7997988,20.9198081 C82.7997988,21.2923546 82.9086429,21.596932 83.1263343,21.8335494 C83.3440257,22.0701668 83.6111884,22.2564373 83.9278305,22.3923664 C84.2444725,22.5282956 84.6847963,22.6868772 85.2488149,22.868116 C85.9513645,23.0896302 86.5203221,23.3010724 86.9557049,23.5024489 C87.3910878,23.7038254 87.7621471,24.0033684 88.0688941,24.401087 C88.3756411,24.7988056 88.5290122,25.3248939 88.5290122,25.9793675 C88.5290122,26.583497 88.3682199,27.1121024 88.0466303,27.5651996 C87.7250407,28.0182967 87.274822,28.3681831 86.6959608,28.6148694 C86.1170996,28.8615556 85.4516665,28.9848968 84.6996416,28.9848968 C83.9377217,28.9848968 83.195603,28.8338667 82.4732633,28.531802 C81.7509237,28.2297372 81.127544,27.8269902 80.6031056,27.323549 L81.241334,26.0699865 C81.7360872,26.5633589 82.2926762,26.9434514 82.9111177,27.2102752 C83.5295592,27.4770991 84.1306754,27.6105091 84.7144841,27.6105091 C85.4071386,27.6105091 85.9538327,27.4720648 86.3545828,27.1951721 C86.7553329,26.9182794 86.9557049,26.5432213 86.9557049,26.0699865 C86.9557049,25.6974399 86.8468609,25.3903454 86.6291695,25.1486936 C86.411478,24.9070418 86.1368941,24.715737 85.8054095,24.5747734 C85.4739248,24.4338098 85.0261799,24.2777454 84.4621613,24.1065754 C83.7695068,23.89513 83.2054966,23.6887222 82.7701138,23.4873457 C82.334731,23.2859692 81.9661453,22.9889433 81.6643459,22.5962591 C81.3625464,22.2035749 81.211649,21.6850382 81.211649,21.0406334 C81.211649,20.4767792 81.3650202,19.9783798 81.6717672,19.5454203 C81.9785141,19.1124608 82.408943,18.7801946 82.9630666,18.5486116 C83.5171901,18.3170286 84.1603597,18.2012388 84.8925944,18.2012388 C85.5159834,18.2012388 86.1269945,18.2943741 86.7256458,18.4806473 C87.3242972,18.6669206 87.8561489,18.9161203 88.3212169,19.2282539 L87.7275161,20.5271259 Z" id="CODELAB-STUDIOS"></path>
                </g>
            </g>
        </g>
    </g>
</svg>