<?xml version="1.0" encoding="UTF-8"?>
<svg width="24px" height="41px" viewBox="0 0 24 41" version="1.1" xmlns="http://www.w3.org/2000/svg" xmlns:xlink="http://www.w3.org/1999/xlink">
    <!-- Generator: Sketch 47 (45396) - http://www.bohemiancoding.com/sketch -->
    <title>003-arrows-1</title>
    <desc>Created with Sketch.</desc>
    <defs></defs>
    <g id="Welcome" stroke="none" stroke-width="1" fill="none" fill-rule="evenodd">
        <g id="Desktop-HD" transform="translate(-1391.000000, -2393.000000)" fill-rule="nonzero" fill="#FFFFFF">
            <g id="Arrow-process-Copy" transform="translate(1266.000000, 2393.000000)">
                <g id="003-arrows-1" transform="translate(145.000000, 20.500000) rotate(-90.000000) translate(-145.000000, -20.500000) translate(124.500000, 0.500000)">
                    <path d="M19.5552541,23.5882141 C19.8289434,23.8629306 20.1442184,24 20.5002158,24 C20.8562133,24 21.1709128,23.863075 21.4444581,23.5882141 L40.5903295,4.37134397 C40.8640188,4.09648299 41,3.78016899 41,3.42283527 C41,3.06550155 40.8631554,2.74904311 40.5903295,2.47432657 L38.5363652,0.412074818 C38.262676,0.137213837 37.9474009,0 37.5909718,0 C37.235406,0 36.9202749,0.137213837 36.6465856,0.412074818 L20.5002158,16.6184733 L4.35456552,0.412074818 C4.08073239,0.137213837 3.76560126,0 3.4096038,0 C3.05346244,0 2.7383313,0.137213837 2.46464207,0.412074818 L0.410965539,2.47432657 C0.136700722,2.74904311 0,3.06492381 0,3.42283527 C0,3.78074673 0.137132408,4.09662743 0.410965539,4.37134397 L19.5552541,23.5882141 Z" id="Shape"></path>
                </g>
            </g>
        </g>
    </g>
</svg>