<?xml version="1.0" encoding="UTF-8"?>
<svg width="68px" height="68px" viewBox="0 0 68 68" version="1.1" xmlns="http://www.w3.org/2000/svg" xmlns:xlink="http://www.w3.org/1999/xlink">
    <!-- Generator: Sketch 47 (45396) - http://www.bohemiancoding.com/sketch -->
    <title>004-bounce</title>
    <desc>Created with Sketch.</desc>
    <defs></defs>
    <g id="Welcome" stroke="none" stroke-width="1" fill="none" fill-rule="evenodd">
        <g id="Desktop-HD" transform="translate(-74.000000, -2603.000000)" fill-rule="nonzero">
            <g id="004-bounce" transform="translate(74.000000, 2603.000000)">
                <path d="M61.8181423,0 L6.1818577,0 C2.77399038,0 0,2.77399038 0,6.1818577 L0,61.8181423 C0,65.2260096 2.77399038,68 6.1818577,68 L61.8181423,68 C65.2260096,68 68,65.2260096 68,61.8181423 L68,6.1818577 C67.9998551,2.77399038 65.2260096,0 61.8181423,0 Z M64.9089987,61.8181423 C64.9089987,63.5235973 63.5234524,64.9089987 61.8181423,64.9089987 L6.1818577,64.9089987 C4.47640273,64.9089987 3.09100129,63.5234524 3.09100129,61.8181423 L3.09100129,15.4545718 L64.9089987,15.4545718 L64.9089987,61.8181423 Z M64.9089987,12.3635705 L3.09085641,12.3635705 L3.09085641,6.1818577 C3.09085641,4.47640273 4.47640273,3.09100129 6.18171281,3.09100129 L61.8179974,3.09100129 C63.5234524,3.09100129 64.9088538,4.47654762 64.9088538,6.1818577 L64.9088538,12.3635705 L64.9089987,12.3635705 Z" id="Shape" fill="#FFFFFF"></path>
                <circle id="Oval" fill="#FFFFFF" cx="7.5" cy="7.5" r="1.5"></circle>
                <circle id="Oval" fill="#FFFFFF" cx="13.5" cy="7.5" r="1.5"></circle>
                <circle id="Oval" fill="#FFFFFF" cx="20.5" cy="7.5" r="1.5"></circle>
                <path d="M10.501973,33.7825652 C11.4318529,33.7825652 12.3617329,33.8505217 13.2623253,33.9836957 C13.3415988,33.9945217 13.4207315,34 13.5000051,34 C14.2245905,34 14.8641294,33.5108696 14.9814204,32.826087 C15.1105391,32.0678696 14.5530899,31.3559565 13.731771,31.2337391 C12.6757293,31.0787826 11.5904,31 10.501973,31 C9.67178335,30.9998696 9,31.6221739 9,32.3912174 C9,33.1602609 9.67178335,33.7825652 10.501973,33.7825652 Z" id="Shape" fill="#FFFFFF"></path>
                <path d="M18.8311117,35.9777056 C20.2035715,36.6661926 21.4867209,37.5588275 22.6472193,38.6313348 C22.9150163,38.878184 23.2441389,39 23.5705834,39 C23.9750908,39 24.3795982,38.8110609 24.6613207,38.4485377 C25.1718757,37.790468 25.0964909,36.8064346 24.4939476,36.2488303 C23.1354133,34.9936721 21.6318669,33.9486576 20.0250847,33.1443502 C19.3025684,32.781827 18.4600789,33.1260705 18.1309564,33.9090271 C17.8018338,34.6919838 18.1142191,35.6182533 18.8311117,35.9777056 Z" id="Shape" fill="#FFFFFF"></path>
                <path d="M28.2422139,45.9291246 C28.4413105,46.5846481 28.9916136,47 29.5833288,47 C29.7326513,47 29.8847611,46.9722311 30.0368709,46.916841 C30.7779086,46.6398905 31.1761019,45.7443432 30.9245765,44.9196953 C30.3604693,43.0610987 29.5750995,41.300875 28.585191,39.6883582 C28.1454529,38.965185 27.2606675,38.786755 26.6190454,39.2728585 C25.9719814,39.7622117 25.8060675,40.7437244 26.2456729,41.4608416 C27.0890462,42.839686 27.7610637,44.3412749 28.2422139,45.9291246 Z" id="Shape" fill="#FFFFFF"></path>
                <path d="M30.3396279,49.0133355 C29.4876169,49.1310758 28.8941452,49.8967413 29.0158193,50.7183794 L29.4570889,53.704291 C29.5666394,54.4493202 30.2239425,55 30.9999985,55 C31.7760544,55 32.4333576,54.4493202 32.5429081,53.704291 L32.9841776,50.7183794 C33.1058517,49.8967413 32.5125261,49.1312171 31.660369,49.0133355 C31.4382006,48.9867626 31.2100433,48.9986356 30.9999985,49.0604033 C30.7931671,48.9986356 30.5617964,48.9867626 30.3396279,49.0133355 Z" id="Shape" fill="#FFFFFF"></path>
                <path d="M31.9711705,44.8871198 C32.1734558,44.9641797 32.3851532,45 32.5937131,45 C33.2131184,45 33.8044368,44.6777496 34.0597584,44.1408418 C34.9032611,42.3867052 36.0829098,40.781269 37.5737552,39.3686807 C38.1713483,38.7985962 38.1371361,37.9063935 37.4927814,37.3750372 C36.848576,36.8491002 35.8431256,36.879369 35.2394072,37.4466778 C33.4995149,39.1016808 32.1144435,40.9824442 31.1278173,43.0395332 C30.7822591,43.7554102 31.1618801,44.5842996 31.9711705,44.8871198 Z" id="Shape" fill="#FFFFFF"></path>
                <path d="M41.6146715,36.1474134 C41.8636448,36.1474134 42.1157946,36.0946787 42.3520622,35.983303 C42.733539,35.8002081 43.1567634,35.6747698 43.5577527,35.5151595 C44.8094262,38.1513322 47.6384351,40 50.9328699,40 C55.3824746,40 59,36.6366509 59,32.5 C59,28.3632085 55.3823233,25 50.9328699,25 C46.4832653,25 42.8657399,28.3633491 42.8657399,32.5 C42.8657399,32.5140626 42.8702777,32.5268595 42.8702777,32.5407815 C42.1976261,32.7872987 41.5103023,33.0107532 40.8772807,33.3114113 C40.0863441,33.6922262 39.771119,34.5946225 40.1777049,35.3329083 C40.4644932,35.8515366 41.0317168,36.1474134 41.6146715,36.1474134 Z M50.9328699,27.9999719 C53.6019974,27.9999719 55.7731782,30.0185157 55.7731782,32.5 C55.7731782,34.9814843 53.6019974,37.0000281 50.9328699,37.0000281 C48.2637424,37.0000281 46.0925617,34.9814843 46.0925617,32.5 C46.0925617,30.0185157 48.2637424,27.9999719 50.9328699,27.9999719 Z" id="Shape" fill="#FFD740"></path>
            </g>
        </g>
    </g>
</svg>